<svg width="105" height="105" xmlns="http://www.w3.org/2000/svg">

 <g>
  <title>background</title>
  <rect fill="none" id="canvas_background" height="107" width="107" y="-1" x="-1"/>
 </g>
 <g>
  <title>Layer 1</title>
  <g transform="matrix(1,0,0,1,-68,38) " id="surface2">
   <path id="svg_1" fill-rule="evenodd" fill="rgb(0.000000%,69.019608%,74.117647%)" d="m146.60156,41.94922l0,-47.59766l-11.05078,4.64844l0,51.64844c4.16406,-2.29688 7.84766,-5.19922 11.05078,-8.69922m-27.65234,13.44922c3.86719,-0.26563 7.55078,-1.03125 11.05078,-2.29688l0,-51.75l-11.05078,4.64844l0,49.39844m-22.14844,-4.75l0,-35.29688l-11.05078,4.64844l0,21.94922c3.16797,3.53516 6.85156,6.43359 11.05078,8.69922m16.59766,-42.29688l0,47.04688c-3.86328,-0.26563 -7.54688,-1.03125 -11.04688,-2.29688l0,-40.10156l11.04688,-4.64844"/>
   <path id="svg_2" fill-rule="evenodd" fill="rgb(0.000000%,29.803922%,51.764706%)" d="m157.19922,14.5c-0.03125,5.69922 -1.11719,11.01563 -3.25,15.94922c-2.09766,4.93359 -5.03125,9.26562 -8.80078,13c-3.73047,3.76562 -8.06641,6.69922 -13,8.80078c-4.96485,2.13281 -10.28125,3.21484 -15.94922,3.25c-5.69922,-0.03516 -11.01563,-1.11719 -15.94922,-3.25c-4.93359,-2.10156 -9.28516,-5.03516 -13.05078,-8.80078c-3.73438,-3.73438 -6.66406,-8.06641 -8.80078,-13c-2.09766,-4.96484 -3.16406,-10.28125 -3.19922,-15.94922c0.03516,-5.69922 1.11719,-11.01562 3.25,-15.94922c2.10156,-4.93359 5.01562,-9.28515 8.75,-13.05078c3.76562,-3.73437 8.11719,-6.66797 13.05078,-8.80078c4.93359,-2.09766 10.25,-3.16406 15.94922,-3.19922c5.26562,0.03516 10.19922,0.94922 14.80078,2.75c4.63281,1.83203 8.78516,4.38281 12.44922,7.64844l-49.84766,21l0,-11.79688l-7.85156,0l0,22.59766l62.75,-26.39844c2.73438,3.5 4.86719,7.38281 6.39844,11.64844c1.5,4.26562 2.26953,8.78516 2.30078,13.55078m0.65234,-29.14844l2.34766,5.64844l11.60156,-15.30078l-19.05078,-2.39844l2.39844,5.64844l-5.64844,2.40234c-4.30078,-4.33593 -9.30078,-7.71875 -15,-10.15234c-5.66797,-2.43359 -11.76562,-3.66406 -18.30078,-3.69922c-6.53125,0.03516 -12.63281,1.26563 -18.30078,3.69922c-5.63281,2.43359 -10.59766,5.80078 -14.89844,10.10156c-4.30078,4.26563 -7.66797,9.23438 -10.10156,14.89844c-2.4336,5.66797 -3.66406,11.76562 -3.69922,18.30078c0.03516,6.53516 1.26562,12.61719 3.69922,18.25c2.43359,5.66797 5.80078,10.64844 10.10156,14.94922c4.26563,4.30078 9.23438,7.66797 14.89844,10.10156c5.66797,2.4336 11.76953,3.66406 18.30078,3.69922c6.53516,-0.03516 12.61719,-1.26562 18.25,-3.69922c5.66797,-2.43359 10.65234,-5.80078 14.94922,-10.10156c4.30078,-4.30078 7.66797,-9.28125 10.10156,-14.94922c2.39844,-5.66797 3.63281,-11.75 3.69922,-18.25c-0.03125,-5.16797 -0.83203,-10.08203 -2.39844,-14.75c-1.5664,-4.66797 -3.76562,-8.94922 -6.60156,-12.85156l3.65234,-1.54688"/>
  </g>
 </g>
</svg>