<?xml version="1.0" standalone="no"?>
<!DOCTYPE svg PUBLIC "-//W3C//DTD SVG 20010904//EN"
 "http://www.w3.org/TR/2001/REC-SVG-20010904/DTD/svg10.dtd">
<svg version="1.0" xmlns="http://www.w3.org/2000/svg"
 width="16.000000pt" height="16.000000pt" viewBox="0 0 16.000000 16.000000"
 preserveAspectRatio="xMidYMid meet">
<metadata>
Created by potrace 1.11, written by Peter Selinger 2001-2013
</metadata>
<g transform="translate(0.000000,16.000000) scale(0.002286,-0.002286)"
fill="#000000" stroke="none">
<path d="M3188 6635 c-2 -1 -64 -5 -138 -9 -74 -4 -155 -9 -180 -11 -511 -57
-988 -235 -1422 -531 -174 -119 -292 -218 -458 -384 -257 -258 -463 -551 -618
-880 -27 -58 -53 -116 -57 -130 -4 -14 -11 -29 -15 -35 -13 -17 -88 -247 -119
-368 -29 -109 -52 -226 -67 -333 -3 -27 -8 -58 -10 -69 -25 -129 -24 -660 1
-779 2 -11 6 -39 9 -61 66 -513 314 -1079 660 -1505 98 -121 105 -129 231
-255 127 -127 136 -135 255 -231 374 -302 840 -523 1300 -618 69 -14 143 -28
165 -31 22 -3 51 -8 65 -10 14 -2 57 -7 95 -10 39 -4 88 -8 110 -11 103 -11
440 -4 552 11 18 3 57 7 85 11 178 19 555 113 693 174 11 5 72 31 135 59 909
396 1588 1213 1805 2171 21 91 42 213 59 340 10 76 19 230 20 330 0 117 -12
369 -18 379 -3 4 -7 36 -11 71 -3 36 -8 72 -10 80 -3 8 -7 31 -9 50 -31 236
-162 615 -310 900 -42 81 -155 272 -166 280 -3 3 -20 29 -38 58 l-32 52 56 25
c31 14 58 25 61 25 2 0 29 11 60 26 31 14 59 21 63 17 5 -4 41 -87 80 -183 40
-96 74 -176 75 -178 1 -2 79 97 172 220 507 667 593 782 593 789 0 4 -44 12
-97 18 -54 7 -109 14 -123 16 -40 6 -133 18 -160 21 -14 1 -52 6 -85 10 -33 3
-67 8 -76 9 -9 2 -40 6 -70 10 -30 3 -70 8 -90 11 -20 2 -54 7 -75 9 -41 5
-83 11 -149 20 -49 6 -93 11 -165 19 -55 7 -120 16 -152 22 -20 3 -24 16 65
-196 36 -85 67 -161 69 -168 2 -8 -65 -42 -182 -92 -206 -89 -179 -88 -259
-10 -68 66 -246 212 -344 281 -412 291 -938 496 -1397 544 -30 4 -61 8 -68 11
-8 2 -80 7 -160 10 -81 3 -159 7 -174 9 -15 2 -28 2 -30 0z m197 -410 c158 -9
219 -17 390 -51 257 -50 553 -163 794 -302 166 -95 468 -320 451 -335 -3 -2
-99 -43 -215 -92 -115 -48 -228 -96 -250 -105 -22 -10 -94 -41 -160 -68 -66
-27 -178 -75 -250 -105 -440 -186 -534 -225 -707 -298 -106 -44 -209 -87 -228
-96 -524 -222 -1496 -629 -1499 -627 -2 2 -4 178 -5 391 l-1 388 -260 0 -260
0 -1 -745 c-1 -410 1 -748 2 -751 3 -5 341 131 449 181 11 5 108 46 215 90
107 45 209 88 225 95 17 7 343 144 725 305 382 161 714 301 737 311 23 11 45
19 48 19 3 0 25 9 48 19 23 11 200 85 392 166 193 80 364 152 380 160 33 14
201 85 445 188 85 36 231 97 323 136 92 39 174 72 182 73 7 2 40 -32 72 -77
249 -340 441 -810 488 -1200 4 -33 9 -71 12 -85 7 -47 17 -235 17 -330 0 -137
-18 -342 -39 -455 -68 -357 -175 -638 -358 -942 -67 -112 -197 -290 -265 -363
l-42 -45 0 1584 c0 1262 -3 1582 -12 1578 -41 -15 -390 -162 -427 -178 -24
-11 -67 -29 -95 -40 -28 -11 -64 -27 -81 -34 -16 -7 -51 -22 -76 -33 l-46 -19
1 -1709 c1 -940 0 -1715 -2 -1722 -6 -19 -255 -138 -348 -166 l-20 -6 0 1697
c1 934 -1 1710 -2 1724 -4 25 -5 26 -30 14 -15 -7 -157 -68 -317 -135 -159
-67 -312 -132 -340 -145 l-50 -22 1 -1637 c0 -900 -3 -1641 -6 -1647 -7 -10
-348 -14 -358 -4 -3 3 -6 709 -6 1570 0 861 0 1565 -1 1565 -2 0 -178 -75
-210 -89 -33 -15 -258 -109 -285 -119 -14 -6 -46 -19 -70 -30 -25 -12 -72 -32
-105 -45 l-60 -25 -3 -1336 c-1 -735 -4 -1336 -5 -1336 -11 0 -205 84 -279
120 l-88 43 0 1175 c0 935 -3 1173 -12 1169 -27 -10 -456 -190 -523 -219 -110
-47 -128 -54 -162 -68 -18 -7 -34 -15 -34 -19 -1 -3 -3 -329 -4 -723 0 -395
-3 -720 -6 -723 -8 -7 -143 161 -221 275 -121 176 -232 386 -301 571 -36 94
-95 289 -104 339 -2 14 -8 41 -13 60 -8 34 -28 151 -35 207 -16 127 -19 182
-19 353 -1 232 7 327 48 555 10 57 61 241 88 320 96 284 257 585 436 814 292
376 687 675 1127 854 197 80 472 154 645 172 36 4 74 9 85 11 11 2 72 7 135
10 63 4 116 7 117 8 2 2 101 -2 218 -9z"/>
</g>
</svg>
